%YAML 1.1
%TAG !u! tag:unity3d.com,2011:
--- !u!1045 &1
EditorBuildSettings:
  m_ObjectHideFlags: 0
  serializedVersion: 2
  m_Scenes:
  - enabled: 1
    path: Assets/Scenes/Menu.unity
    guid: 5cf8226f8acfa8d4d85862c365a21502
  - enabled: 1
    path: Assets/Scenes/SampleScene.unity
    guid: 99c9720ab356a0642a771bea13969a05
  - enabled: 1
    path: Assets/Scenes/ganastes.unity
    guid: 416adbe2e64a1044db47efd7ac4452e4
  m_configObjects: {}
